,id,kind,energy
0,1,consumption,251588322.52805558
1,1,production,14697969.41743944
2,2,consumption,42040468.76777778
3,2,production,3644345.6082803225
4,3,consumption,20377394.85361111
5,3,production,7309704.851085728
6,4,consumption,105830211.54527777
7,4,production,16312761.043627847
